---
http_interactions:
- request:
    method: get
    uri: https://api.synthfinance.com/rates/historical-range?date_end=2024-07-31&date_start=2024-01-01&from=USD&page=1&to=EUR,GBP
    body:
      encoding: US-ASCII
      string: ''
    headers:
      Authorization:
      - Bearer <SYNTH_API_KEY>
      X-Source:
      - maybe_app
      X-Source-Type:
      - managed
      User-Agent:
      - Faraday v2.10.1
      Accept-Encoding:
      - gzip;q=1.0,deflate;q=0.6,identity;q=0.3
      Accept:
      - "*/*"
  response:
    status:
      code: 200
      message: OK
    headers:
      Date:
      - Thu, 08 Aug 2024 14:59:22 GMT
      Content-Type:
      - application/json; charset=utf-8
      Transfer-Encoding:
      - chunked
      Connection:
      - keep-alive
      Cf-Ray:
      - 8b005eaed8125902-TXL
      Cf-Cache-Status:
      - DYNAMIC
      Cache-Control:
      - max-age=0, private, must-revalidate
      Etag:
      - W/"8ec288f20ba69b8113b9244b805252d8"
      Strict-Transport-Security:
      - max-age=63072000; includeSubDomains
      Vary:
      - Accept-Encoding
      Referrer-Policy:
      - strict-origin-when-cross-origin
      Rndr-Id:
      - 2ea5a901-374d-4e8b
      X-Content-Type-Options:
      - nosniff
      X-Frame-Options:
      - SAMEORIGIN
      X-Permitted-Cross-Domain-Policies:
      - none
      X-Render-Origin-Server:
      - Render
      X-Request-Id:
      - 9f183f59-b8b9-466b-a3c4-c9b2266e9911
      X-Runtime:
      - '0.063873'
      X-Xss-Protection:
      - '0'
      Server:
      - cloudflare
      Alt-Svc:
      - h3=":443"; ma=86400
    body:
      encoding: ASCII-8BIT
      string: '{"data":[{"date":"2024-01-01","source":"USD","rates":{"EUR":0.905969,"GBP":0.785476}},{"date":"2024-01-02","source":"USD","rates":{"EUR":0.906048,"GBP":0.785644}},{"date":"2024-01-03","source":"USD","rates":{"EUR":0.913941,"GBP":0.792232}},{"date":"2024-01-04","source":"USD","rates":{"EUR":0.915253,"GBP":0.789053}},{"date":"2024-01-05","source":"USD","rates":{"EUR":0.913491,"GBP":0.788487}},{"date":"2024-01-06","source":"USD","rates":{"EUR":0.912883,"GBP":0.785787}},{"date":"2024-01-07","source":"USD","rates":{"EUR":0.913346,"GBP":0.785994}},{"date":"2024-01-08","source":"USD","rates":{"EUR":0.913926,"GBP":0.786378}},{"date":"2024-01-09","source":"USD","rates":{"EUR":0.913236,"GBP":0.784775}},{"date":"2024-01-10","source":"USD","rates":{"EUR":0.914787,"GBP":0.786769}},{"date":"2024-01-11","source":"USD","rates":{"EUR":0.911186,"GBP":0.784633}},{"date":"2024-01-12","source":"USD","rates":{"EUR":0.910585,"GBP":0.782576}},{"date":"2024-01-13","source":"USD","rates":{"EUR":0.912612,"GBP":0.78447}},{"date":"2024-01-14","source":"USD","rates":{"EUR":0.912506,"GBP":0.784423}},{"date":"2024-01-15","source":"USD","rates":{"EUR":0.913681,"GBP":0.785204}},{"date":"2024-01-16","source":"USD","rates":{"EUR":0.913655,"GBP":0.786438}},{"date":"2024-01-17","source":"USD","rates":{"EUR":0.919247,"GBP":0.791264}},{"date":"2024-01-18","source":"USD","rates":{"EUR":0.91868,"GBP":0.788852}},{"date":"2024-01-19","source":"USD","rates":{"EUR":0.919153,"GBP":0.786744}},{"date":"2024-01-20","source":"USD","rates":{"EUR":0.916606,"GBP":0.787186}},{"date":"2024-01-21","source":"USD","rates":{"EUR":0.916689,"GBP":0.787166}},{"date":"2024-01-22","source":"USD","rates":{"EUR":0.918107,"GBP":0.787487}},{"date":"2024-01-23","source":"USD","rates":{"EUR":0.919293,"GBP":0.786985}},{"date":"2024-01-24","source":"USD","rates":{"EUR":0.921054,"GBP":0.787961}},{"date":"2024-01-25","source":"USD","rates":{"EUR":0.91896,"GBP":0.786236}},{"date":"2024-01-26","source":"USD","rates":{"EUR":0.921966,"GBP":0.786961}},{"date":"2024-01-27","source":"USD","rates":{"EUR":0.920707,"GBP":0.786935}},{"date":"2024-01-28","source":"USD","rates":{"EUR":0.92095,"GBP":0.787014}},{"date":"2024-01-29","source":"USD","rates":{"EUR":0.922297,"GBP":0.78761}},{"date":"2024-01-30","source":"USD","rates":{"EUR":0.923038,"GBP":0.786652}},{"date":"2024-01-31","source":"USD","rates":{"EUR":0.922219,"GBP":0.787736}},{"date":"2024-02-01","source":"USD","rates":{"EUR":0.925601,"GBP":0.788759}},{"date":"2024-02-02","source":"USD","rates":{"EUR":0.919597,"GBP":0.784546}},{"date":"2024-02-03","source":"USD","rates":{"EUR":0.926008,"GBP":0.791634}},{"date":"2024-02-04","source":"USD","rates":{"EUR":0.925917,"GBP":0.791637}},{"date":"2024-02-05","source":"USD","rates":{"EUR":0.927648,"GBP":0.792205}},{"date":"2024-02-06","source":"USD","rates":{"EUR":0.930983,"GBP":0.797836}},{"date":"2024-02-07","source":"USD","rates":{"EUR":0.929647,"GBP":0.79341}},{"date":"2024-02-08","source":"USD","rates":{"EUR":0.928027,"GBP":0.791971}},{"date":"2024-02-09","source":"USD","rates":{"EUR":0.927877,"GBP":0.792371}},{"date":"2024-02-10","source":"USD","rates":{"EUR":0.927573,"GBP":0.791997}},{"date":"2024-02-11","source":"USD","rates":{"EUR":0.927455,"GBP":0.792019}},{"date":"2024-02-12","source":"USD","rates":{"EUR":0.926117,"GBP":0.791339}},{"date":"2024-02-13","source":"USD","rates":{"EUR":0.928319,"GBP":0.791977}},{"date":"2024-02-14","source":"USD","rates":{"EUR":0.933827,"GBP":0.794262}},{"date":"2024-02-15","source":"USD","rates":{"EUR":0.931816,"GBP":0.795709}},{"date":"2024-02-16","source":"USD","rates":{"EUR":0.928226,"GBP":0.793714}},{"date":"2024-02-17","source":"USD","rates":{"EUR":0.927769,"GBP":0.793499}},{"date":"2024-02-18","source":"USD","rates":{"EUR":0.927953,"GBP":0.79367}},{"date":"2024-02-19","source":"USD","rates":{"EUR":0.92727,"GBP":0.792968}}],"paging":{"prev":"/rates/historical-range?date_end=2024-07-31\u0026date_start=2024-01-01\u0026from=USD\u0026page=\u0026to=EUR%2CGBP","next":"/rates/historical-range?date_end=2024-07-31\u0026date_start=2024-01-01\u0026from=USD\u0026page=2\u0026to=EUR%2CGBP","total_records":426,"current_page":1,"per_page":100,"total_pages":5},"meta":{"credits_used":1,"credits_remaining":58,"date_start":"2024-01-01","date_end":"2024-07-31"}}'
  recorded_at: Thu, 08 Aug 2024 14:59:22 GMT
- request:
    method: get
    uri: https://api.synthfinance.com/rates/historical-range?date_end=2024-07-31&date_start=2024-01-01&from=USD&page=2&to=EUR,GBP
    body:
      encoding: US-ASCII
      string: ''
    headers:
      Authorization:
      - Bearer <SYNTH_API_KEY>
      X-Source:
      - maybe_app
      X-Source-Type:
      - managed
      User-Agent:
      - Faraday v2.10.1
      Accept-Encoding:
      - gzip;q=1.0,deflate;q=0.6,identity;q=0.3
      Accept:
      - "*/*"
  response:
    status:
      code: 200
      message: OK
    headers:
      Date:
      - Thu, 08 Aug 2024 14:59:22 GMT
      Content-Type:
      - application/json; charset=utf-8
      Transfer-Encoding:
      - chunked
      Connection:
      - keep-alive
      Cf-Ray:
      - 8b005eb2c8504534-TXL
      Cf-Cache-Status:
      - DYNAMIC
      Cache-Control:
      - max-age=0, private, must-revalidate
      Etag:
      - W/"19a1c2617ec0d45cb7d2b31449b75080"
      Strict-Transport-Security:
      - max-age=63072000; includeSubDomains
      Vary:
      - Accept-Encoding
      Referrer-Policy:
      - strict-origin-when-cross-origin
      Rndr-Id:
      - a72c7ae3-a0dd-425e
      X-Content-Type-Options:
      - nosniff
      X-Frame-Options:
      - SAMEORIGIN
      X-Permitted-Cross-Domain-Policies:
      - none
      X-Render-Origin-Server:
      - Render
      X-Request-Id:
      - 1b5030cd-7cc5-4054-9ca3-7684d884a44a
      X-Runtime:
      - '0.038002'
      X-Xss-Protection:
      - '0'
      Server:
      - cloudflare
      Alt-Svc:
      - h3=":443"; ma=86400
    body:
      encoding: ASCII-8BIT
      string: '{"data":[{"date":"2024-02-20","source":"USD","rates":{"EUR":0.928009,"GBP":0.794437}},{"date":"2024-02-21","source":"USD","rates":{"EUR":0.925,"GBP":0.791988}},{"date":"2024-02-22","source":"USD","rates":{"EUR":0.924176,"GBP":0.791262}},{"date":"2024-02-23","source":"USD","rates":{"EUR":0.923756,"GBP":0.789749}},{"date":"2024-02-24","source":"USD","rates":{"EUR":0.923387,"GBP":0.78886}},{"date":"2024-02-25","source":"USD","rates":{"EUR":0.923182,"GBP":0.789107}},{"date":"2024-02-26","source":"USD","rates":{"EUR":0.924286,"GBP":0.78917}},{"date":"2024-02-27","source":"USD","rates":{"EUR":0.921612,"GBP":0.788381}},{"date":"2024-02-28","source":"USD","rates":{"EUR":0.922374,"GBP":0.78861}},{"date":"2024-02-29","source":"USD","rates":{"EUR":0.922649,"GBP":0.789837}},{"date":"2024-03-01","source":"USD","rates":{"EUR":0.925467,"GBP":0.792028}},{"date":"2024-03-02","source":"USD","rates":{"EUR":0.922182,"GBP":0.790312}},{"date":"2024-03-03","source":"USD","rates":{"EUR":0.922168,"GBP":0.790258}},{"date":"2024-03-04","source":"USD","rates":{"EUR":0.922356,"GBP":0.789891}},{"date":"2024-03-05","source":"USD","rates":{"EUR":0.921259,"GBP":0.788025}},{"date":"2024-03-06","source":"USD","rates":{"EUR":0.92116,"GBP":0.787136}},{"date":"2024-03-07","source":"USD","rates":{"EUR":0.91752,"GBP":0.785219}},{"date":"2024-03-08","source":"USD","rates":{"EUR":0.913187,"GBP":0.780438}},{"date":"2024-03-09","source":"USD","rates":{"EUR":0.914304,"GBP":0.777772}},{"date":"2024-03-10","source":"USD","rates":{"EUR":0.913957,"GBP":0.777884}},{"date":"2024-03-11","source":"USD","rates":{"EUR":0.913791,"GBP":0.77786}},{"date":"2024-03-12","source":"USD","rates":{"EUR":0.914836,"GBP":0.780067}},{"date":"2024-03-13","source":"USD","rates":{"EUR":0.91515,"GBP":0.781535}},{"date":"2024-03-14","source":"USD","rates":{"EUR":0.912982,"GBP":0.781184}},{"date":"2024-03-15","source":"USD","rates":{"EUR":0.918863,"GBP":0.784604}},{"date":"2024-03-16","source":"USD","rates":{"EUR":0.917702,"GBP":0.785537}},{"date":"2024-03-17","source":"USD","rates":{"EUR":0.917645,"GBP":0.785147}},{"date":"2024-03-18","source":"USD","rates":{"EUR":0.918839,"GBP":0.785457}},{"date":"2024-03-19","source":"USD","rates":{"EUR":0.919654,"GBP":0.785746}},{"date":"2024-03-20","source":"USD","rates":{"EUR":0.9206,"GBP":0.786238}},{"date":"2024-03-21","source":"USD","rates":{"EUR":0.91428,"GBP":0.781351}},{"date":"2024-03-22","source":"USD","rates":{"EUR":0.920617,"GBP":0.789841}},{"date":"2024-03-23","source":"USD","rates":{"EUR":0.921138,"GBP":0.793659}},{"date":"2024-03-24","source":"USD","rates":{"EUR":0.922798,"GBP":0.793385}},{"date":"2024-03-25","source":"USD","rates":{"EUR":0.925279,"GBP":0.793673}},{"date":"2024-03-26","source":"USD","rates":{"EUR":0.922723,"GBP":0.791344}},{"date":"2024-03-27","source":"USD","rates":{"EUR":0.923162,"GBP":0.791899}},{"date":"2024-03-28","source":"USD","rates":{"EUR":0.924828,"GBP":0.792585}},{"date":"2024-03-29","source":"USD","rates":{"EUR":0.92664,"GBP":0.792205}},{"date":"2024-03-30","source":"USD","rates":{"EUR":0.926539,"GBP":0.792228}},{"date":"2024-03-31","source":"USD","rates":{"EUR":0.926183,"GBP":0.792057}},{"date":"2024-04-01","source":"USD","rates":{"EUR":0.926572,"GBP":0.79134}},{"date":"2024-04-02","source":"USD","rates":{"EUR":0.931341,"GBP":0.797058}},{"date":"2024-04-03","source":"USD","rates":{"EUR":0.928687,"GBP":0.795147}},{"date":"2024-04-04","source":"USD","rates":{"EUR":0.922664,"GBP":0.790398}},{"date":"2024-04-05","source":"USD","rates":{"EUR":0.92282,"GBP":0.791151}},{"date":"2024-04-06","source":"USD","rates":{"EUR":0.922153,"GBP":0.791314}},{"date":"2024-04-07","source":"USD","rates":{"EUR":0.922408,"GBP":0.791273}},{"date":"2024-04-08","source":"USD","rates":{"EUR":0.923358,"GBP":0.792111}},{"date":"2024-04-09","source":"USD","rates":{"EUR":0.920629,"GBP":0.790047}}],"paging":{"prev":"/rates/historical-range?date_end=2024-07-31\u0026date_start=2024-01-01\u0026from=USD\u0026page=1\u0026to=EUR%2CGBP","next":"/rates/historical-range?date_end=2024-07-31\u0026date_start=2024-01-01\u0026from=USD\u0026page=3\u0026to=EUR%2CGBP","total_records":426,"current_page":2,"per_page":100,"total_pages":5},"meta":{"credits_used":1,"credits_remaining":57,"date_start":"2024-01-01","date_end":"2024-07-31"}}'
  recorded_at: Thu, 08 Aug 2024 14:59:22 GMT
- request:
    method: get
    uri: https://api.synthfinance.com/rates/historical-range?date_end=2024-07-31&date_start=2024-01-01&from=USD&page=3&to=EUR,GBP
    body:
      encoding: US-ASCII
      string: ''
    headers:
      Authorization:
      - Bearer <SYNTH_API_KEY>
      X-Source:
      - maybe_app
      X-Source-Type:
      - managed
      User-Agent:
      - Faraday v2.10.1
      Accept-Encoding:
      - gzip;q=1.0,deflate;q=0.6,identity;q=0.3
      Accept:
      - "*/*"
  response:
    status:
      code: 200
      message: OK
    headers:
      Date:
      - Thu, 08 Aug 2024 14:59:23 GMT
      Content-Type:
      - application/json; charset=utf-8
      Transfer-Encoding:
      - chunked
      Connection:
      - keep-alive
      Cf-Ray:
      - 8b005eb4dba22675-TXL
      Cf-Cache-Status:
      - DYNAMIC
      Cache-Control:
      - max-age=0, private, must-revalidate
      Etag:
      - W/"5a2e12fe90d4aa633eb5d8c03a85eb60"
      Strict-Transport-Security:
      - max-age=63072000; includeSubDomains
      Vary:
      - Accept-Encoding
      Referrer-Policy:
      - strict-origin-when-cross-origin
      Rndr-Id:
      - 38c8edc9-0a33-4065
      X-Content-Type-Options:
      - nosniff
      X-Frame-Options:
      - SAMEORIGIN
      X-Permitted-Cross-Domain-Policies:
      - none
      X-Render-Origin-Server:
      - Render
      X-Request-Id:
      - 649c4456-5181-4eca-9e7f-feee1a2e7d28
      X-Runtime:
      - '0.058997'
      X-Xss-Protection:
      - '0'
      Server:
      - cloudflare
      Alt-Svc:
      - h3=":443"; ma=86400
    body:
      encoding: ASCII-8BIT
      string: '{"data":[{"date":"2024-04-10","source":"USD","rates":{"EUR":0.920903,"GBP":0.788828}},{"date":"2024-04-11","source":"USD","rates":{"EUR":0.930968,"GBP":0.797646}},{"date":"2024-04-12","source":"USD","rates":{"EUR":0.932275,"GBP":0.796524}},{"date":"2024-04-13","source":"USD","rates":{"EUR":0.938238,"GBP":0.803024}},{"date":"2024-04-14","source":"USD","rates":{"EUR":0.937624,"GBP":0.802912}},{"date":"2024-04-15","source":"USD","rates":{"EUR":0.939212,"GBP":0.8025}},{"date":"2024-04-16","source":"USD","rates":{"EUR":0.941173,"GBP":0.80344}},{"date":"2024-04-17","source":"USD","rates":{"EUR":0.941545,"GBP":0.804505}},{"date":"2024-04-18","source":"USD","rates":{"EUR":0.937281,"GBP":0.80301}},{"date":"2024-04-19","source":"USD","rates":{"EUR":0.93956,"GBP":0.804145}},{"date":"2024-04-20","source":"USD","rates":{"EUR":0.937975,"GBP":0.80845}},{"date":"2024-04-21","source":"USD","rates":{"EUR":0.937802,"GBP":0.808199}},{"date":"2024-04-22","source":"USD","rates":{"EUR":0.938216,"GBP":0.808004}},{"date":"2024-04-23","source":"USD","rates":{"EUR":0.938628,"GBP":0.809734}},{"date":"2024-04-24","source":"USD","rates":{"EUR":0.934318,"GBP":0.802955}},{"date":"2024-04-25","source":"USD","rates":{"EUR":0.934607,"GBP":0.80264}},{"date":"2024-04-26","source":"USD","rates":{"EUR":0.932219,"GBP":0.799526}},{"date":"2024-04-27","source":"USD","rates":{"EUR":0.934752,"GBP":0.80053}},{"date":"2024-04-28","source":"USD","rates":{"EUR":0.934421,"GBP":0.800761}},{"date":"2024-04-29","source":"USD","rates":{"EUR":0.933988,"GBP":0.799397}},{"date":"2024-04-30","source":"USD","rates":{"EUR":0.933295,"GBP":0.796217}},{"date":"2024-05-01","source":"USD","rates":{"EUR":0.937548,"GBP":0.800703}},{"date":"2024-05-02","source":"USD","rates":{"EUR":0.933033,"GBP":0.797562}},{"date":"2024-05-03","source":"USD","rates":{"EUR":0.931962,"GBP":0.797457}},{"date":"2024-05-04","source":"USD","rates":{"EUR":0.928561,"GBP":0.797001}},{"date":"2024-05-05","source":"USD","rates":{"EUR":0.92875,"GBP":0.797107}},{"date":"2024-05-06","source":"USD","rates":{"EUR":0.929513,"GBP":0.797363}},{"date":"2024-05-07","source":"USD","rates":{"EUR":0.928742,"GBP":0.796218}},{"date":"2024-05-08","source":"USD","rates":{"EUR":0.930218,"GBP":0.799915}},{"date":"2024-05-09","source":"USD","rates":{"EUR":0.9305,"GBP":0.800422}},{"date":"2024-05-10","source":"USD","rates":{"EUR":0.927473,"GBP":0.798411}},{"date":"2024-05-11","source":"USD","rates":{"EUR":0.927694,"GBP":0.798489}},{"date":"2024-05-12","source":"USD","rates":{"EUR":0.927743,"GBP":0.798475}},{"date":"2024-05-13","source":"USD","rates":{"EUR":0.928463,"GBP":0.79853}},{"date":"2024-05-14","source":"USD","rates":{"EUR":0.926539,"GBP":0.796122}},{"date":"2024-05-15","source":"USD","rates":{"EUR":0.924704,"GBP":0.794614}},{"date":"2024-05-16","source":"USD","rates":{"EUR":0.918351,"GBP":0.78804}},{"date":"2024-05-17","source":"USD","rates":{"EUR":0.920143,"GBP":0.789188}},{"date":"2024-05-18","source":"USD","rates":{"EUR":0.918881,"GBP":0.787162}},{"date":"2024-05-19","source":"USD","rates":{"EUR":0.919101,"GBP":0.787194}},{"date":"2024-05-20","source":"USD","rates":{"EUR":0.919739,"GBP":0.787022}},{"date":"2024-05-21","source":"USD","rates":{"EUR":0.920773,"GBP":0.786793}},{"date":"2024-05-22","source":"USD","rates":{"EUR":0.921237,"GBP":0.786723}},{"date":"2024-05-23","source":"USD","rates":{"EUR":0.923763,"GBP":0.786132}},{"date":"2024-05-24","source":"USD","rates":{"EUR":0.92486,"GBP":0.78778}},{"date":"2024-05-25","source":"USD","rates":{"EUR":0.921813,"GBP":0.785013}},{"date":"2024-05-26","source":"USD","rates":{"EUR":0.921817,"GBP":0.785081}},{"date":"2024-05-27","source":"USD","rates":{"EUR":0.921922,"GBP":0.78526}},{"date":"2024-05-28","source":"USD","rates":{"EUR":0.920667,"GBP":0.78296}},{"date":"2024-05-29","source":"USD","rates":{"EUR":0.92151,"GBP":0.783808}}],"paging":{"prev":"/rates/historical-range?date_end=2024-07-31\u0026date_start=2024-01-01\u0026from=USD\u0026page=2\u0026to=EUR%2CGBP","next":"/rates/historical-range?date_end=2024-07-31\u0026date_start=2024-01-01\u0026from=USD\u0026page=4\u0026to=EUR%2CGBP","total_records":426,"current_page":3,"per_page":100,"total_pages":5},"meta":{"credits_used":1,"credits_remaining":56,"date_start":"2024-01-01","date_end":"2024-07-31"}}'
  recorded_at: Thu, 08 Aug 2024 14:59:23 GMT
- request:
    method: get
    uri: https://api.synthfinance.com/rates/historical-range?date_end=2024-07-31&date_start=2024-01-01&from=USD&page=4&to=EUR,GBP
    body:
      encoding: US-ASCII
      string: ''
    headers:
      Authorization:
      - Bearer <SYNTH_API_KEY>
      X-Source:
      - maybe_app
      X-Source-Type:
      - managed
      User-Agent:
      - Faraday v2.10.1
      Accept-Encoding:
      - gzip;q=1.0,deflate;q=0.6,identity;q=0.3
      Accept:
      - "*/*"
  response:
    status:
      code: 200
      message: OK
    headers:
      Date:
      - Thu, 08 Aug 2024 14:59:23 GMT
      Content-Type:
      - application/json; charset=utf-8
      Transfer-Encoding:
      - chunked
      Connection:
      - keep-alive
      Cf-Ray:
      - 8b005eb6d9aa44fe-TXL
      Cf-Cache-Status:
      - DYNAMIC
      Cache-Control:
      - max-age=0, private, must-revalidate
      Etag:
      - W/"802ae6aeb8ddd618504c6f810d62c8c8"
      Strict-Transport-Security:
      - max-age=63072000; includeSubDomains
      Vary:
      - Accept-Encoding
      Referrer-Policy:
      - strict-origin-when-cross-origin
      Rndr-Id:
      - fdd90a31-003b-41a0
      X-Content-Type-Options:
      - nosniff
      X-Frame-Options:
      - SAMEORIGIN
      X-Permitted-Cross-Domain-Policies:
      - none
      X-Render-Origin-Server:
      - Render
      X-Request-Id:
      - 723fecd4-c662-4a92-8074-c6d8e7e82aae
      X-Runtime:
      - '0.032997'
      X-Xss-Protection:
      - '0'
      Server:
      - cloudflare
      Alt-Svc:
      - h3=":443"; ma=86400
    body:
      encoding: ASCII-8BIT
      string: '{"data":[{"date":"2024-05-30","source":"USD","rates":{"EUR":0.925788,"GBP":0.787552}},{"date":"2024-05-31","source":"USD","rates":{"EUR":0.923236,"GBP":0.785599}},{"date":"2024-06-01","source":"USD","rates":{"EUR":0.921626,"GBP":0.785113}},{"date":"2024-06-02","source":"USD","rates":{"EUR":0.921497,"GBP":0.785019}},{"date":"2024-06-03","source":"USD","rates":{"EUR":0.921449,"GBP":0.784657}},{"date":"2024-06-04","source":"USD","rates":{"EUR":0.916844,"GBP":0.780649}},{"date":"2024-06-05","source":"USD","rates":{"EUR":0.918953,"GBP":0.782934}},{"date":"2024-06-06","source":"USD","rates":{"EUR":0.919585,"GBP":0.781631}},{"date":"2024-06-07","source":"USD","rates":{"EUR":0.918142,"GBP":0.781732}},{"date":"2024-06-08","source":"USD","rates":{"EUR":0.924998,"GBP":0.785947}},{"date":"2024-06-09","source":"USD","rates":{"EUR":0.92499,"GBP":0.785767}},{"date":"2024-06-10","source":"USD","rates":{"EUR":0.927735,"GBP":0.785588}},{"date":"2024-06-11","source":"USD","rates":{"EUR":0.929064,"GBP":0.785791}},{"date":"2024-06-12","source":"USD","rates":{"EUR":0.93109,"GBP":0.784932}},{"date":"2024-06-13","source":"USD","rates":{"EUR":0.924823,"GBP":0.781472}},{"date":"2024-06-14","source":"USD","rates":{"EUR":0.93128,"GBP":0.784041}},{"date":"2024-06-15","source":"USD","rates":{"EUR":0.933469,"GBP":0.789096}},{"date":"2024-06-16","source":"USD","rates":{"EUR":0.933158,"GBP":0.788449}},{"date":"2024-06-17","source":"USD","rates":{"EUR":0.934371,"GBP":0.788479}},{"date":"2024-06-18","source":"USD","rates":{"EUR":0.931061,"GBP":0.786542}},{"date":"2024-06-19","source":"USD","rates":{"EUR":0.931129,"GBP":0.786916}},{"date":"2024-06-20","source":"USD","rates":{"EUR":0.930424,"GBP":0.786107}},{"date":"2024-06-21","source":"USD","rates":{"EUR":0.933979,"GBP":0.789875}},{"date":"2024-06-22","source":"USD","rates":{"EUR":0.934815,"GBP":0.79058}},{"date":"2024-06-23","source":"USD","rates":{"EUR":0.934928,"GBP":0.790546}},{"date":"2024-06-24","source":"USD","rates":{"EUR":0.935645,"GBP":0.791248}},{"date":"2024-06-25","source":"USD","rates":{"EUR":0.931737,"GBP":0.788496}},{"date":"2024-06-26","source":"USD","rates":{"EUR":0.933764,"GBP":0.788395}},{"date":"2024-06-27","source":"USD","rates":{"EUR":0.936314,"GBP":0.792298}},{"date":"2024-06-28","source":"USD","rates":{"EUR":0.933869,"GBP":0.79087}},{"date":"2024-06-29","source":"USD","rates":{"EUR":0.93315,"GBP":0.790726}},{"date":"2024-06-30","source":"USD","rates":{"EUR":0.933253,"GBP":0.790719}},{"date":"2024-07-01","source":"USD","rates":{"EUR":0.93152,"GBP":0.790622}},{"date":"2024-07-02","source":"USD","rates":{"EUR":0.931407,"GBP":0.790812}},{"date":"2024-07-03","source":"USD","rates":{"EUR":0.930429,"GBP":0.78816}},{"date":"2024-07-04","source":"USD","rates":{"EUR":0.92665,"GBP":0.784451}},{"date":"2024-07-05","source":"USD","rates":{"EUR":0.925014,"GBP":0.783992}},{"date":"2024-07-06","source":"USD","rates":{"EUR":0.921768,"GBP":0.780243}},{"date":"2024-07-07","source":"USD","rates":{"EUR":0.921729,"GBP":0.780594}},{"date":"2024-07-08","source":"USD","rates":{"EUR":0.923694,"GBP":0.780827}},{"date":"2024-07-09","source":"USD","rates":{"EUR":0.923286,"GBP":0.780333}},{"date":"2024-07-10","source":"USD","rates":{"EUR":0.924646,"GBP":0.781936}},{"date":"2024-07-11","source":"USD","rates":{"EUR":0.923064,"GBP":0.777992}},{"date":"2024-07-12","source":"USD","rates":{"EUR":0.919681,"GBP":0.773816}},{"date":"2024-07-13","source":"USD","rates":{"EUR":0.915923,"GBP":0.770374}},{"date":"2024-07-14","source":"USD","rates":{"EUR":0.916081,"GBP":0.770294}},{"date":"2024-07-15","source":"USD","rates":{"EUR":0.918634,"GBP":0.771174}},{"date":"2024-07-16","source":"USD","rates":{"EUR":0.917569,"GBP":0.771041}},{"date":"2024-07-17","source":"USD","rates":{"EUR":0.917254,"GBP":0.770574}},{"date":"2024-07-18","source":"USD","rates":{"EUR":0.914062,"GBP":0.768775}}],"paging":{"prev":"/rates/historical-range?date_end=2024-07-31\u0026date_start=2024-01-01\u0026from=USD\u0026page=3\u0026to=EUR%2CGBP","next":"/rates/historical-range?date_end=2024-07-31\u0026date_start=2024-01-01\u0026from=USD\u0026page=5\u0026to=EUR%2CGBP","total_records":426,"current_page":4,"per_page":100,"total_pages":5},"meta":{"credits_used":1,"credits_remaining":55,"date_start":"2024-01-01","date_end":"2024-07-31"}}'
  recorded_at: Thu, 08 Aug 2024 14:59:23 GMT
- request:
    method: get
    uri: https://api.synthfinance.com/rates/historical-range?date_end=2024-07-31&date_start=2024-01-01&from=USD&page=5&to=EUR,GBP
    body:
      encoding: US-ASCII
      string: ''
    headers:
      Authorization:
      - Bearer <SYNTH_API_KEY>
      X-Source:
      - maybe_app
      X-Source-Type:
      - managed
      User-Agent:
      - Faraday v2.10.1
      Accept-Encoding:
      - gzip;q=1.0,deflate;q=0.6,identity;q=0.3
      Accept:
      - "*/*"
  response:
    status:
      code: 200
      message: OK
    headers:
      Date:
      - Thu, 08 Aug 2024 14:59:23 GMT
      Content-Type:
      - application/json; charset=utf-8
      Transfer-Encoding:
      - chunked
      Connection:
      - keep-alive
      Cf-Ray:
      - 8b005eb959954510-TXL
      Cf-Cache-Status:
      - DYNAMIC
      Cache-Control:
      - max-age=0, private, must-revalidate
      Etag:
      - W/"5fb346c08551196ca30f699a65c637cf"
      Strict-Transport-Security:
      - max-age=63072000; includeSubDomains
      Vary:
      - Accept-Encoding
      Referrer-Policy:
      - strict-origin-when-cross-origin
      Rndr-Id:
      - 9753e531-4edf-49b8
      X-Content-Type-Options:
      - nosniff
      X-Frame-Options:
      - SAMEORIGIN
      X-Permitted-Cross-Domain-Policies:
      - none
      X-Render-Origin-Server:
      - Render
      X-Request-Id:
      - 5cdbdbf5-dd4f-460f-a956-0655dd592ce0
      X-Runtime:
      - '0.029355'
      X-Xss-Protection:
      - '0'
      Server:
      - cloudflare
      Alt-Svc:
      - h3=":443"; ma=86400
    body:
      encoding: ASCII-8BIT
      string: '{"data":[{"date":"2024-07-19","source":"USD","rates":{"EUR":0.917339,"GBP":0.772195}},{"date":"2024-07-20","source":"USD","rates":{"EUR":0.918343,"GBP":0.774311}},{"date":"2024-07-21","source":"USD","rates":{"EUR":0.918135,"GBP":0.774027}},{"date":"2024-07-22","source":"USD","rates":{"EUR":0.917935,"GBP":0.773514}},{"date":"2024-07-23","source":"USD","rates":{"EUR":0.918253,"GBP":0.77348}},{"date":"2024-07-24","source":"USD","rates":{"EUR":0.921893,"GBP":0.775341}},{"date":"2024-07-25","source":"USD","rates":{"EUR":0.922519,"GBP":0.775425}},{"date":"2024-07-26","source":"USD","rates":{"EUR":0.921327,"GBP":0.777798}},{"date":"2024-07-27","source":"USD","rates":{"EUR":0.920653,"GBP":0.777333}},{"date":"2024-07-28","source":"USD","rates":{"EUR":0.920044,"GBP":0.77693}},{"date":"2024-07-29","source":"USD","rates":{"EUR":0.920345,"GBP":0.77605}},{"date":"2024-07-30","source":"USD","rates":{"EUR":0.924437,"GBP":0.77799}},{"date":"2024-07-31","source":"USD","rates":{"EUR":0.924283,"GBP":0.778763}}],"paging":{"prev":"/rates/historical-range?date_end=2024-07-31\u0026date_start=2024-01-01\u0026from=USD\u0026page=4\u0026to=EUR%2CGBP","next":"/rates/historical-range?date_end=2024-07-31\u0026date_start=2024-01-01\u0026from=USD\u0026page=\u0026to=EUR%2CGBP","total_records":426,"current_page":5,"per_page":100,"total_pages":5},"meta":{"credits_used":1,"credits_remaining":54,"date_start":"2024-01-01","date_end":"2024-07-31"}}'
  recorded_at: Thu, 08 Aug 2024 14:59:24 GMT
recorded_with: VCR 6.2.0
